[{"ID":1,"Name":"Germany","Category":"Germany","Category_ID":1,"TreeParent_ID":0},
    {"ID":2,"Name":"Plastic","Category":"Plastic","Category_ID":2,"TreeParent_ID":1},
    {"ID":3,"Name":"Fibrous Material","Category":"Fibrous Material","Category_ID":3,"TreeParent_ID":1},
    {"ID":4,"Name":"Glass","Category":"Glass","Category_ID":4,"TreeParent_ID":1},
    {"ID":5,"Name":"Metals","Category":"Metals","Category_ID":5,"TreeParent_ID":1}]
    